[
  {
    "name": {
      "first": "Fowler",
      "last": "Britt"
    },
    "company": "EARTHMARK",
    "city": "KISKIMERE",
    "country": "INDONESIA",
    "address": "398 Holt Court, Baker, Oregon, 1752"
  },
  {
    
    "name": {
      "first": "Mathews",
      "last": "Harper"
    },
    "company": "MEDIFAX",
    "city": "WAUKEENAH",
    "country": "BELARUS",
    "address": "194 Belmont Avenue, Dunnavant, Maine, 7361"
  },
  {
    "name": {
      "first": "Michele",
      "last": "Cline"
    },
    "company": "MOBILDATA",
    "city": "MATHEWS",
    "country": "NIUE",
    "address": "161 Narrows Avenue, Vincent, South Dakota, 320"
  },
  {
    "name": {
      "first": "Dawn",
      "last": "Campos"
    },
    "company": "BYTREX",
    "city": "RYDERWOOD",
    "country": "SAMOA",
    "address": "403 Canton Court, Comptche, Georgia, 8866"
  },
  {
    "name": {
      "first": "Elinor",
      "last": "Marshall"
    },
    "company": "INSECTUS",
    "city": "WITMER",
    "country": "SWAZILAND",
    "address": "608 Powers Street, Ivanhoe, Palau, 9036"
  }
]